19 19
###################
#01111111#11111115#
#1#1####1#1####1#1#
#1#1111#1#1#1111#1#
#1#1##1#1#1#1##1#1#
#1#1#11#111#11#1#1#
#1#1##1#1#1#1##1#1#
#1#1111#1#1#1111#1#
#1#1####1#1###1##1#
#11111110111111011#
#1#1####1#1####1#1#
#1#1111#1#1#1111#1#
#1#1##1#1#1#1##1#1#
#1#1#51#111#15#1#1#
#1#1##1#1#1#1##1#1#
#1#1111#1#1#1111#1#
#1#1####1#1###1##1#
#11111110#11111110#
###################
4
1 1
10 16
10 9
17 17
14



19 19
###################
#01111111#11111115#
#1#1####1#1####1#1#
#1#1111#1#1#1111#1#
#1#1##1#1#1#1##1#1#
#1#1#11#111#11#1#1#
#1#1##1#1#1#1##1#1#
#1#1111#1#1#1111#1#
#1#1####1#1###1##1#
#11111110111111011#
#1#1####1#1####1#1#
#1#1111#1#1#1111#1#
#1#1##1#1#1#1##1#1#
#1#1#51#111#15#1#1#
#1#1##1#1#1#1##1#1#
#1#1111#1#1#1111#1#
#1#1####1#1###1##1#
#11111110#11111110#
###################
5
1 1
10 15
17 8
10 8
17 17
13

10 10
##########
#11121111#
#1#1#1111#
#1#1#1111#
##5111111#
#11111111#
#11111111#
#11112111#
#11110111#
##########
3
1 1
8 8
8 1
6